A tour of permutation inference • flipr
…
Once bounds are known for each parameter, it becomes possible to generate a grid for later evaluating the plausibility function. This is done through the $set_grid() method as follows:

pfa$set_grid(
  parameters = pfa$parameters, 
  npoints = 50L
)

We can then take a look at the newly created grid:

pfa$grid

#> # A tibble: 51 × 1
#>    delta
#>    <dbl>
#>  1  2.02
#>  2  2.07
#>  3  2.12
#>  4  2.17
#>  5  2.22
#>  6  2.27
#>  7  2.32
#>  8  2.37
#>  9  2.42
#> 10  2.47
#> # … with 41 more rows

We can go a step further and evaluate the plaubility function on that grid using the $evaluate_grid() method as follows:

pfa$evaluate_grid(grid = pfa$grid)

Again, we can then take a look at the updated grid:

pfa$grid
#> # A tibble: 51 × 2
#>    delta pvalue
#>    <dbl>  <dbl>
#>  1  2.02 0.0102
#>  2  2.07 0.0137
#>  3  2.12 0.0185
#>  4  2.17 0.0240
#>  5  2.22 0.0317
#>  6  2.27 0.0405
#>  7  2.32 0.0520
#>  8  2.37 0.0659
#>  9  2.42 0.0834
#> 10  2.47 0.104 
#> # … with 41 more rows
…
